  ____    _  _____  _        ___ _   _ ___ _____ ___    _    _     ___ __________ ____      ____  _____ ______     _____ ____ _____
 |  _ \  / \|_   _|/ \      |_ _| \ | |_ _|_   _|_ _|  / \  | |   |_ _|__  / ____|  _ \    / ___|| ____|  _ \ \   / /_ _/ ___| ____|
 | | | |/ _ \ | | / _ \ _____| ||  \| || |  | |  | |  / _ \ | |    | |  / /|  _| | |_) |___\___ \|  _| | |_) \ \ / / | | |   |  _|
 | |_| / ___ \| |/ ___ \_____| || |\  || |  | |  | | / ___ \| |___ | | / /_| |___|  _ <_____|__) | |___|  _ < \ V /  | | |___| |___
 |____/_/   \_\_/_/   \_\   |___|_| \_|___| |_| |___/_/   \_\_____|___/____|_____|_| \_\   |____/|_____|_| \_\ \_/  |___\____|_____|
